{
  "cards": [
    {
      "id": 1,
      "cardTitle": "Learning",
      "items": [
        {
          "id": 1,
          "text": "React",
          "isCompleted": true
        },
        {
          "id": 2,
          "text": "AWS",
          "isCompleted": true
        },
        {
          "id": 3,
          "text": "Microservices",
          "isCompleted": false
        },
        {
          "id": 4,
          "text": "AAA",
          "isCompleted": false
        },
        {
          "id": 5,
          "text": "AA",
          "isCompleted": false
        }
      ],
      "color": "lightpink"
    },
    {
      "id": 2,
      "cardTitle": "GoThroughUrls",
      "items": [
        {
          "id": 1,
          "text": "URL1",
          "isCompleted": ""
        },
        {
          "id": 2,
          "text": "URL2",
          "isCompleted": ""
        }
      ],
      "color": "lightpink"
    },
    {
      "id": 3,
      "cardTitle": "Essentials",
      "items": [
        {
          "id": 1,
          "text": "ID CArd",
          "isCompleted": ""
        },
        {
          "id": 2,
          "text": "Mobile",
          "isCompleted": ""
        },
        {
          "id": 3,
          "text": "Wallet",
          "isCompleted": ""
        },
        {
          "id": 4,
          "text": "Tiffin",
          "isCompleted": ""
        }
      ],
      "color": "#61dafb"
    }
  ]
}